labs/3/lab3.vcd
$comment
Copyright (C) 1991-2009 Altera Corporation
Your use of Altera Corporation's design tools, logic functions 
and other software and tools, and its AMPP partner logic 
functions, and any output files from any of the foregoing 
(including device programming or simulation files), and any 
associated documentation or information are expressly subject 
to the terms and conditions of the Altera Program License 
Subscription Agreement, Altera MegaCore Function License 
Agreement, or other applicable license agreement, including, 
without limitation, that your use is for the sole purpose of 
programming logic devices manufactured by Altera and sold by 
Altera or its authorized distributors.  Please refer to the 
applicable agreement for further details.
$end

$date 
  11/03/2018 19:19:06 
$end
$version 
 QUARTUS_VCD_EXPORT 1.0 
$end
$timescale
  1 ps
$end
$scope module lab3 $end
$var reg 1 ! clk $end
$var reg 7 " StartAddress[6:0] $end
$var reg 7 # address[6:0] $end
$var reg 8 $ data[7:0] $end
$var reg 8 % outbuf[7:0] $end
$var reg 1 & Read_Write $end
$var reg 1 ' ROM_RAM $end
$var reg 1 ( rden $end
$var reg 8 ) rom_out[7:0] $end
$var reg 8 * ram_out[7:0] $end
$var reg 8 + out1[7:0] $end
$var reg 8 , out2[7:0] $end
$var reg 8 - out3[7:0] $end
$var reg 8 . out4[7:0] $end
$var reg 4 / out_counter[3:0] $end
$upscope $end
$enddefinitions $end
#0
$dumpvars
0!
b1100 "
b1100 #
bZ $
bZ %
1&
1'
1(
b0 )
b0 *
b0 +
b0 ,
b0 -
b0 .
b0 /
$end
#2500
1!
b1 /
#5000
0!
b1101 #
b1100 $
b1100 )
#7500
1!
b1100 +
b10 /
#10000
0!
b1110 #
b1101 $
b1101 )
#12500
1!
b1101 ,
b11 /
#15000
0!
b1111 #
b1110 $
b1110 )
#17500
1!
b1110 -
b100 /
#20000
0!
b1100 #
b1111 $
b1111 )
#22500
1!
b1111 .
b101 /
#25000
0!
b1101 #
bX $
0&
b1100 )
#27500
1!
b110 /
#30000
0!
b1110 #
b1101 )
#32500
1!
b111 /
#35000
0!
b1111 #
b1110 )
#37500
1!
b1000 /
#40000
0!
b11 "
b11 #
b1100 $
b1100 %
0'
b0 )
#42500
1!
b1001 /
#45000
0!
b100 #
b1101 $
b1101 %
#47500
1!
b1010 /
#50000
0!
b101 #
b1110 $
b1110 %
#52500
1!
b1011 /
#55000
0!
b110 #
b1111 $
b1111 %
#57500
1!
b0 /
#60000
0!
b111 "
b111 #
b0 $
bZ %
1&
#62500
1!
b1 /
#65000
0!
b1000 #
b10111 $
b10111 *
#67500
1!
b10111 +
b10 /
#70000
0!
b1001 #
b11000 $
b11000 *
#72500
1!
b11000 ,
b11 /
#75000
0!
b1010 #
b11001 $
b11001 *
#77500
1!
b11001 -
b100 /
#80000
0!
b111 #
b11010 $
b11010 *
#82500
1!
b11010 .
b101 /
#85000
0!
b1000 #
bX $
0&
1'
b10111 *
#87500
1!
b110 /
#90000
0!
b1001 #
b1000 )
#92500
1!
b111 /
#95000
0!
b1010 #
b1001 )
#97500
1!
b1000 /
#100000
0!
b11 "
b11 #
b10111 $
b10111 %
0'
b0 )
#102500
1!
b1001 /
#105000
0!
b100 #
b11000 $
b11000 %
#107500
1!
b1010 /
#110000
0!
b101 #
b11001 $
b11001 %
#112500
1!
b1011 /
#115000
0!
b110 #
b11010 $
b11010 %
#117500
1!
b0 /
#120000
0!
b0 "
b0 #
b0 $
bZ %
1&
1'
#122500
1!
b1 /
#125000
0!
b1 #
#127500
1!
b0 +
b10 /
#130000
0!
b10 #
b1 $
b1 )
#132500
1!
b1 ,
b11 /
#135000
0!
b11 #
b10 $
b10 )
#137500
1!
b10 -
b100 /
#140000
0!
b0 #
b11 $
b11 )
#142500
1!
b11 .
b101 /
#145000
0!
b1 #
b0 $
b0 )
#147500
1!
b110 /
#150000
0!
b10 #
b1 $
b1 )
#152500
1!
b111 /
#155000
0!
b11 #
b10 $
b10 )
#157500
1!
b1000 /
#160000
0!
b0 #
b11 $
b0 %
0(
b11 )
#162500
1!
#165000
0!
b1 #
b0 $
b0 )
#167500
1!
#170000
0!
b10 #
b1 $
b1 )
#172500
1!
#175000
0!
b11 #
b10 $
b10 )
#177500
1!
#180000
0!
b0 #
b11 $
b11 )
#182500
1!
#185000
0!
b1 #
b0 $
b0 )
#187500
1!
#190000
0!
b10 #
b1 $
b1 )
#192500
1!
#195000
0!
b11 #
b10 $
b10 )
#197500
1!
#200000
0!
b0 #
b11 $
b11 )
#202500
1!
#205000
0!
b1 #
b0 $
b0 )
#207500
1!
#210000
0!
b10 #
b1 $
b1 )
#212500
1!
#215000
0!
b11 #
b10 $
b10 )
#217500
1!
#220000
0!
b0 #
b11 $
b11 )
#222500
1!
#225000
0!
b1 #
b0 $
b0 )
#227500
1!
#230000
0!
b10 #
b1 $
b1 )
#232500
1!
#235000
0!
b11 #
b10 $
b10 )
#237500
1!
#240000
0!
b0 #
b11 $
b11 )
#242500
1!
#245000
0!
b1 #
b0 $
b0 )
#247500
1!
#250000
0!
b10 #
b1 $
b1 )
#252500
1!
#255000
0!
b11 #
b10 $
b10 )
#257500
1!
#260000
0!
b0 #
b11 $
b11 )
#262500
1!
#265000
0!
b1 #
b0 $
b0 )
#267500
1!
#270000
0!
b10 #
b1 $
b1 )
#272500
1!
#275000
0!
b11 #
b10 $
b10 )
#277500
1!
#280000
0!
b0 #
b11 $
b11 )
#282500
1!
#285000
0!
b1 #
b0 $
b0 )
#287500
1!
#290000
0!
b10 #
b1 $
b1 )
#292500
1!
#295000
0!
b11 #
b10 $
b10 )
#297500
1!
#300000
0!
b0 #
b11 $
b11 )
#302500
1!
#305000
0!
b1 #
b0 $
b0 )
#307500
1!
#310000
0!
b10 #
b1 $
b1 )
#312500
1!
#315000
0!
b11 #
b10 $
b10 )
#317500
1!
#320000
0!
b0 #
b11 $
b11 )
#322500
1!
#325000
0!
b1 #
b0 $
b0 )
#327500
1!
#330000
0!
b10 #
b1 $
b1 )
#332500
1!
#335000
0!
b11 #
b10 $
b10 )
#337500
1!
#340000
0!
b0 #
b11 $
b11 )
#342500
1!
#345000
0!
b1 #
b0 $
b0 )
#347500
1!
#350000
0!
b10 #
b1 $
b1 )
#352500
1!
#355000
0!
b11 #
b10 $
b10 )
#357500
1!
#360000
0!
b0 #
b11 $
b11 )
#362500
1!
#365000
0!
b1 #
b0 $
b0 )
#367500
1!
#370000
0!
b10 #
b1 $
b1 )
#372500
1!
#375000
0!
b11 #
b10 $
b10 )
#377500
1!
#380000
0!
b0 #
b11 $
b11 )
#382500
1!
#385000
0!
b1 #
b0 $
b0 )
#387500
1!
#390000
0!
b10 #
b1 $
b1 )
#392500
1!
#395000
0!
b11 #
b10 $
b10 )
#397500
1!
#400000
0!
b0 #
b11 $
b11 )
#402500
1!
#405000
0!
b1 #
b0 $
b0 )
#407500
1!
#410000
0!
b10 #
b1 $
b1 )
#412500
1!
#415000
0!
b11 #
b10 $
b10 )
#417500
1!
#420000
0!
b0 #
b11 $
b11 )
#422500
1!
#425000
0!
b1 #
b0 $
b0 )
#427500
1!
#430000
0!
b10 #
b1 $
b1 )
#432500
1!
#435000
0!
b11 #
b10 $
b10 )
#437500
1!
#440000
0!
b0 #
b11 $
b11 )
#442500
1!
#445000
0!
b1 #
b0 $
b0 )
#447500
1!
#450000
0!
b10 #
b1 $
b1 )
#452500
1!
#455000
0!
b11 #
b10 $
b10 )
#457500
1!
#460000
0!
b0 #
b11 $
b11 )
#462500
1!
#465000
0!
b1 #
b0 $
b0 )
#467500
1!
#470000
0!
b10 #
b1 $
b1 )
#472500
1!
#475000
0!
b11 #
b10 $
b10 )
#477500
1!
#480000
0!
b0 #
b11 $
b11 )
#482500
1!
#485000
0!
b1 #
b0 $
b0 )
#487500
1!
#490000
0!
b10 #
b1 $
b1 )
#492500
1!
#495000
0!
b11 #
b10 $
b10 )
#497500
1!
#500000
0!
b0 #
b11 $
b11 )
#502500
1!
#505000
0!
b1 #
b0 $
b0 )
#507500
1!
#510000
0!
b10 #
b1 $
b1 )
#512500
1!
#515000
0!
b11 #
b10 $
b10 )
#517500
1!
#520000
0!
b0 #
b11 $
b11 )
#522500
1!
#525000
0!
b1 #
b0 $
b0 )
#527500
1!
#530000
0!
b10 #
b1 $
b1 )
#532500
1!
#535000
0!
b11 #
b10 $
b10 )
#537500
1!
#540000
0!
b0 #
b11 $
b11 )
#542500
1!
#545000
0!
b1 #
b0 $
b0 )
#547500
1!
#550000
0!
b10 #
b1 $
b1 )
#552500
1!
#555000
0!
b11 #
b10 $
b10 )
#557500
1!
#560000
0!
b0 #
b11 $
b11 )
#562500
1!
#565000
0!
b1 #
b0 $
b0 )
#567500
1!
#570000
0!
b10 #
b1 $
b1 )
#572500
1!
#575000
0!
b11 #
b10 $
b10 )
#577500
1!
#580000
0!
b0 #
b11 $
b11 )
#582500
1!
#585000
0!
b1 #
b0 $
b0 )
#587500
1!
#590000
0!
b10 #
b1 $
b1 )
#592500
1!
#595000
0!
b11 #
b10 $
b10 )
#597500
1!
#600000
0!
b0 #
b11 $
b11 )
#602500
1!
#605000
0!
b1 #
b0 $
b0 )
#607500
1!
#610000
0!
b10 #
b1 $
b1 )
#612500
1!
#615000
0!
b11 #
b10 $
b10 )
#617500
1!
#620000
0!
b0 #
b11 $
b11 )
#622500
1!
#625000
0!
b1 #
b0 $
b0 )
#627500
1!
#630000
0!
b10 #
b1 $
b1 )
#632500
1!
#635000
0!
b11 #
b10 $
b10 )
#637500
1!
#640000
0!
b0 #
b11 $
b11 )
#642500
1!
#645000
0!
b1 #
b0 $
b0 )
#647500
1!
#650000
0!
b10 #
b1 $
b1 )
#652500
1!
#655000
0!
b11 #
b10 $
b10 )
#657500
1!
#660000
0!
b0 #
b11 $
b11 )
#662500
1!
#665000
0!
b1 #
b0 $
b0 )
#667500
1!
#670000
0!
b10 #
b1 $
b1 )
#672500
1!
#675000
0!
b11 #
b10 $
b10 )
#677500
1!
#680000
0!
b0 #
b11 $
b11 )
#682500
1!
#685000
0!
b1 #
b0 $
b0 )
#687500
1!
#690000
0!
b10 #
b1 $
b1 )
#692500
1!
#695000
0!
b11 #
b10 $
b10 )
#697500
1!
#700000
0!
b0 #
b11 $
b11 )
#702500
1!
#705000
0!
b1 #
b0 $
b0 )
#707500
1!
#710000
0!
b10 #
b1 $
b1 )
#712500
1!
#715000
0!
b11 #
b10 $
b10 )
#717500
1!
#720000
0!
b0 #
b11 $
b11 )
#722500
1!
#725000
0!
b1 #
b0 $
b0 )
#727500
1!
#730000
0!
b10 #
b1 $
b1 )
#732500
1!
#735000
0!
b11 #
b10 $
b10 )
#737500
1!
#740000
0!
b0 #
b11 $
b11 )
#742500
1!
#745000
0!
b1 #
b0 $
b0 )
#747500
1!
#750000
0!
b10 #
b1 $
b1 )
#752500
1!
#755000
0!
b11 #
b10 $
b10 )
#757500
1!
#760000
0!
b0 #
b11 $
b11 )
#762500
1!
#765000
0!
b1 #
b0 $
b0 )
#767500
1!
#770000
0!
b10 #
b1 $
b1 )
#772500
1!
#775000
0!
b11 #
b10 $
b10 )
#777500
1!
#780000
0!
b0 #
b11 $
b11 )
#782500
1!
#785000
0!
b1 #
b0 $
b0 )
#787500
1!
#790000
0!
b10 #
b1 $
b1 )
#792500
1!
#795000
0!
b11 #
b10 $
b10 )
#797500
1!
#800000
0!
b0 #
b11 $
b11 )
#802500
1!
#805000
0!
b1 #
b0 $
b0 )
#807500
1!
#810000
0!
b10 #
b1 $
b1 )
#812500
1!
#815000
0!
b11 #
b10 $
b10 )
#817500
1!
#820000
0!
b0 #
b11 $
b11 )
#822500
1!
#825000
0!
b1 #
b0 $
b0 )
#827500
1!
#830000
0!
b10 #
b1 $
b1 )
#832500
1!
#835000
0!
b11 #
b10 $
b10 )
#837500
1!
#840000
0!
b0 #
b11 $
b11 )
#842500
1!
#845000
0!
b1 #
b0 $
b0 )
#847500
1!
#850000
0!
b10 #
b1 $
b1 )
#852500
1!
#855000
0!
b11 #
b10 $
b10 )
#857500
1!
#860000
0!
b0 #
b11 $
b11 )
#862500
1!
#865000
0!
b1 #
b0 $
b0 )
#867500
1!
#870000
0!
b10 #
b1 $
b1 )
#872500
1!
#875000
0!
b11 #
b10 $
b10 )
#877500
1!
#880000
0!
b0 #
b11 $
b11 )
#882500
1!
#885000
0!
b1 #
b0 $
b0 )
#887500
1!
#890000
0!
b10 #
b1 $
b1 )
#892500
1!
#895000
0!
b11 #
b10 $
b10 )
#897500
1!
#900000
0!
b0 #
b11 $
b11 )
#902500
1!
#905000
0!
b1 #
b0 $
b0 )
#907500
1!
#910000
0!
b10 #
b1 $
b1 )
#912500
1!
#915000
0!
b11 #
b10 $
b10 )
#917500
1!
#920000
0!
b0 #
b11 $
b11 )
#922500
1!
#925000
0!
b1 #
b0 $
b0 )
#927500
1!
#930000
0!
b10 #
b1 $
b1 )
#932500
1!
#935000
0!
b11 #
b10 $
b10 )
#937500
1!
#940000
0!
b0 #
b11 $
b11 )
#942500
1!
#945000
0!
b1 #
b0 $
b0 )
#947500
1!
#950000
0!
b10 #
b1 $
b1 )
#952500
1!
#955000
0!
b11 #
b10 $
b10 )
#957500
1!
#960000
0!
b0 #
b11 $
b11 )
#962500
1!
#965000
0!
b1 #
b0 $
b0 )
#967500
1!
#970000
0!
b10 #
b1 $
b1 )
#972500
1!
#975000
0!
b11 #
b10 $
b10 )
#977500
1!
#980000
0!
b0 #
b11 $
b11 )
#982500
1!
#985000
0!
b1 #
b0 $
b0 )
#987500
1!
#990000
0!
b10 #
b1 $
b1 )
#992500
1!
#995000
0!
b11 #
b10 $
b10 )
